%YAML 1.1
%TAG !u! tag:unity3d.com,2011:
--- !u!114 &11400000
MonoBehaviour:
  m_ObjectHideFlags: 0
  m_CorrespondingSourceObject: {fileID: 0}
  m_PrefabInstance: {fileID: 0}
  m_PrefabAsset: {fileID: 0}
  m_GameObject: {fileID: 0}
  m_Enabled: 1
  m_EditorHideFlags: 0
  m_Script: {fileID: 11500000, guid: 468a46d0ae32c3544b7d98094e6448a9, type: 3}
  m_Name: AddressableAssetSettings
  m_EditorClassIdentifier: 
  m_DefaultGroup: 5c1d217d099f3024f971af9b8620eccf
  m_OptimizeCatalogSize: 0
  m_BuildRemoteCatalog: 1
  m_BundleLocalCatalog: 0
  m_DisableCatalogUpdateOnStart: 0
  m_IgnoreUnsupportedFilesInBuild: 0
  m_UniqueBundleIds: 0
  m_maxConcurrentWebRequests: 5
  m_ContiguousBundles: 0
  m_RemoteCatalogBuildPath:
    m_Id: 6af114de073c6554191a09ce1556addc
  m_RemoteCatalogLoadPath:
    m_Id: 080c6b041ede2ec468d59f3d86920c23
  m_overridePlayerVersion: assets_scenes
  m_GroupAssets:
  - {fileID: 11400000, guid: e33b4759cf84a344d92eaf0de61d6cd7, type: 2}
  - {fileID: 11400000, guid: d2b823c09b20f8349ac1d7fbeea1d5b0, type: 2}
  m_BuildSettings:
    m_CompileScriptsInVirtualMode: 0
    m_CleanupStreamingAssetsAfterBuilds: 1
    m_LogResourceManagerExceptions: 1
    m_BundleBuildPath: Temp/com.unity.addressables/AssetBundles
  m_ProfileSettings:
    m_Profiles:
    - m_InheritedParent: 
      m_Id: a2df0645d03ded5418f22fa8615da5ef
      m_ProfileName: Default
      m_Values:
      - m_Id: 93ab95f0184e0e4408199786cf9db3b4
        m_Value: '[UnityEditor.EditorUserBuildSettings.activeBuildTarget]'
      - m_Id: f8871a00c494fbf489a9eb11aaad83ed
        m_Value: '[UnityEngine.AddressableAssets.Addressables.BuildPath]/[BuildTarget]'
      - m_Id: 3fbcef608cef82f408fc3928d4b327d6
        m_Value: '{UnityEngine.AddressableAssets.Addressables.RuntimePath}/[BuildTarget]'
      - m_Id: 6af114de073c6554191a09ce1556addc
        m_Value: C:/Users/leori/Documents/Projetos/virtual-town/ServerData/[BuildTarget]/YellowPanda
      - m_Id: 080c6b041ede2ec468d59f3d86920c23
        m_Value: http://[PrivateIpAddress_1]:49834/[BuildTarget]/YellowPanda
    - m_InheritedParent: 
      m_Id: 3d2b42e92a490d24588b7d62cb2d8419
      m_ProfileName: VR Glass - RockInRio
      m_Values:
      - m_Id: 93ab95f0184e0e4408199786cf9db3b4
        m_Value: '[UnityEditor.EditorUserBuildSettings.activeBuildTarget]'
      - m_Id: f8871a00c494fbf489a9eb11aaad83ed
        m_Value: '[UnityEngine.AddressableAssets.Addressables.BuildPath]/[BuildTarget]'
      - m_Id: 3fbcef608cef82f408fc3928d4b327d6
        m_Value: '{UnityEngine.AddressableAssets.Addressables.RuntimePath}/[BuildTarget]'
      - m_Id: 6af114de073c6554191a09ce1556addc
        m_Value: ServerData/[BuildTarget]/
      - m_Id: 080c6b041ede2ec468d59f3d86920c23
        m_Value: https://vrglass.com/rockinrio/AddressablesBuild/hall
    - m_InheritedParent: 
      m_Id: d29e2fc10eb895443aeaa0f1e7f62ff0
      m_ProfileName: VR Glass - Prod
      m_Values:
      - m_Id: 93ab95f0184e0e4408199786cf9db3b4
        m_Value: '[UnityEditor.EditorUserBuildSettings.activeBuildTarget]'
      - m_Id: f8871a00c494fbf489a9eb11aaad83ed
        m_Value: '[UnityEngine.AddressableAssets.Addressables.BuildPath]/[BuildTarget]'
      - m_Id: 3fbcef608cef82f408fc3928d4b327d6
        m_Value: '{UnityEngine.AddressableAssets.Addressables.RuntimePath}/[BuildTarget]'
      - m_Id: 6af114de073c6554191a09ce1556addc
        m_Value: ServerData/[BuildTarget]/
      - m_Id: 080c6b041ede2ec468d59f3d86920c23
        m_Value: https://unity.roca.vt-prd.vrglass.com/virtualtown/AddressablesBuild/hall
    - m_InheritedParent: 
      m_Id: 70c3c5e503d399c47830af8c7782f233
      m_ProfileName: hall_bizarro
      m_Values:
      - m_Id: 93ab95f0184e0e4408199786cf9db3b4
        m_Value: '[UnityEditor.EditorUserBuildSettings.activeBuildTarget]'
      - m_Id: f8871a00c494fbf489a9eb11aaad83ed
        m_Value: '[UnityEngine.AddressableAssets.Addressables.BuildPath]/[BuildTarget]'
      - m_Id: 3fbcef608cef82f408fc3928d4b327d6
        m_Value: '{UnityEngine.AddressableAssets.Addressables.RuntimePath}/[BuildTarget]'
      - m_Id: 6af114de073c6554191a09ce1556addc
        m_Value: ServerData/[BuildTarget]/
      - m_Id: 080c6b041ede2ec468d59f3d86920c23
        m_Value: https://vrglass.com/rockinrio/AddressablesBuild/hall_bizarro
    - m_InheritedParent: 
      m_Id: 743e24561557ba34b90bfd6f91bbc0fc
      m_ProfileName: hall_link
      m_Values:
      - m_Id: 93ab95f0184e0e4408199786cf9db3b4
        m_Value: '[UnityEditor.EditorUserBuildSettings.activeBuildTarget]'
      - m_Id: f8871a00c494fbf489a9eb11aaad83ed
        m_Value: '[UnityEngine.AddressableAssets.Addressables.BuildPath]/[BuildTarget]'
      - m_Id: 3fbcef608cef82f408fc3928d4b327d6
        m_Value: '{UnityEngine.AddressableAssets.Addressables.RuntimePath}/[BuildTarget]'
      - m_Id: 6af114de073c6554191a09ce1556addc
        m_Value: ServerData/[BuildTarget]/
      - m_Id: 080c6b041ede2ec468d59f3d86920c23
        m_Value: https://vrglass.com/rockinrio/AddressablesBuild/hall_link
    - m_InheritedParent: 
      m_Id: aaadce8dd4e2b2f499800f7640407121
      m_ProfileName: Redcarpet - Dev
      m_Values:
      - m_Id: 93ab95f0184e0e4408199786cf9db3b4
        m_Value: '[UnityEditor.EditorUserBuildSettings.activeBuildTarget]'
      - m_Id: f8871a00c494fbf489a9eb11aaad83ed
        m_Value: '[UnityEngine.AddressableAssets.Addressables.BuildPath]/[BuildTarget]'
      - m_Id: 3fbcef608cef82f408fc3928d4b327d6
        m_Value: '{UnityEngine.AddressableAssets.Addressables.RuntimePath}/[BuildTarget]'
      - m_Id: 6af114de073c6554191a09ce1556addc
        m_Value: ServerData/[BuildTarget]/
      - m_Id: 080c6b041ede2ec468d59f3d86920c23
        m_Value: https://vrglass.com/rockinrio/AddressablesBuild/redcarpet
    - m_InheritedParent: 
      m_Id: 3decbe5c2b17920498b495d364ed1015
      m_ProfileName: Redcarpet - Prod
      m_Values:
      - m_Id: 93ab95f0184e0e4408199786cf9db3b4
        m_Value: '[UnityEditor.EditorUserBuildSettings.activeBuildTarget]'
      - m_Id: f8871a00c494fbf489a9eb11aaad83ed
        m_Value: '[UnityEngine.AddressableAssets.Addressables.BuildPath]/[BuildTarget]'
      - m_Id: 3fbcef608cef82f408fc3928d4b327d6
        m_Value: '{UnityEngine.AddressableAssets.Addressables.RuntimePath}/[BuildTarget]'
      - m_Id: 6af114de073c6554191a09ce1556addc
        m_Value: ServerData/[BuildTarget]/
      - m_Id: 080c6b041ede2ec468d59f3d86920c23
        m_Value: https://unity.roca.vt-prd.vrglass.com/virtualtown/AddressablesBuild/redcarpet
    - m_InheritedParent: 
      m_Id: 12260c63cd7d120438bb588fe7106dd1
      m_ProfileName: hall local
      m_Values:
      - m_Id: 93ab95f0184e0e4408199786cf9db3b4
        m_Value: '[UnityEditor.EditorUserBuildSettings.activeBuildTarget]'
      - m_Id: f8871a00c494fbf489a9eb11aaad83ed
        m_Value: '[UnityEngine.AddressableAssets.Addressables.BuildPath]/[BuildTarget]'
      - m_Id: 3fbcef608cef82f408fc3928d4b327d6
        m_Value: '{UnityEngine.AddressableAssets.Addressables.RuntimePath}/[BuildTarget]'
      - m_Id: 6af114de073c6554191a09ce1556addc
        m_Value: ServerData/[BuildTarget]/
      - m_Id: 080c6b041ede2ec468d59f3d86920c23
        m_Value: AddressablesBuild/hall
    m_ProfileEntryNames:
    - m_Id: 93ab95f0184e0e4408199786cf9db3b4
      m_Name: BuildTarget
      m_InlineUsage: 0
    - m_Id: f8871a00c494fbf489a9eb11aaad83ed
      m_Name: LocalBuildPath
      m_InlineUsage: 0
    - m_Id: 3fbcef608cef82f408fc3928d4b327d6
      m_Name: LocalLoadPath
      m_InlineUsage: 0
    - m_Id: 6af114de073c6554191a09ce1556addc
      m_Name: RemoteBuildPath
      m_InlineUsage: 0
    - m_Id: 080c6b041ede2ec468d59f3d86920c23
      m_Name: RemoteLoadPath
      m_InlineUsage: 0
    m_ProfileVersion: 1
  m_LabelTable:
    m_LabelNames:
    - default
    - scene
    - arena_scene
  m_SchemaTemplates: []
  m_GroupTemplateObjects:
  - {fileID: 11400000, guid: d2008fad2be6bff40a2c03a7ee63232d, type: 2}
  m_InitializationObjects: []
  m_CertificateHandlerType:
    m_AssemblyName: 
    m_ClassName: 
  m_ActivePlayerDataBuilderIndex: 3
  m_DataBuilders:
  - {fileID: 11400000, guid: 993e8da51df09ea43b7d639090d7f9b0, type: 2}
  - {fileID: 11400000, guid: 8feff0fe156eb3c46ad57f9d6269a04b, type: 2}
  - {fileID: 11400000, guid: 77fce5aceb32fd7448de548065b51be8, type: 2}
  - {fileID: 11400000, guid: ae62e0c8839e2c14ea54701864c702bc, type: 2}
  m_ActiveProfileId: 3decbe5c2b17920498b495d364ed1015
  m_HostingServicesManager:
    m_HostingServiceInfos: []
    m_Settings: {fileID: 11400000}
    m_NextInstanceId: 0
    m_RegisteredServiceTypeRefs: []
